0.0549, 0.4811, 0.
0.0542, 0.2347, 0.
0.0709, 0.1146, 0.
0.1272, 0.055, 0.
0.149, 0.0505, 0.
0.2254, 0.0283, 0.
0.2839, 0.0288, 0.
0.3492, 0.0201, 0.
0.4241, 0.0235, 0.
0.4346, 0.0167, 0.
0.7246, 0.0113, 0.
1.3637, 7.6122e-3, 9.7276e-4
1.7184, 5.8936e-3, 9.2574e-4
2.3005, 5.4139e-3, 1.1518e-3
2.5659, 6.103e-3, 1.0458e-3
2.9327, 6.5364e-3, 9.3175e-4
3.2726, 5.1467e-3, 8.0833e-4
3.6957, 4.8906e-3, 1.1056e-3
4.1724, 5.5133e-3, 9.4474e-4
4.2243, 4.7275e-3, 8.7646e-4
4.8308, 3.2469e-3, 9.3992e-4
5.5217, 3.2477e-3, 8.1866e-4
5.8698, 2.4292e-3, 1.0232e-3
6.6335, 1.3134e-3, 9.6701e-4
7.7671, 1.5322e-3, 9.6347e-4
9.6814, 4.5562e-4, 4.6239e-4